%YAML 1.1
%TAG !u! tag:unity3d.com,2011:
--- !u!1001 &208899571792276283
PrefabInstance:
  m_ObjectHideFlags: 0
  serializedVersion: 2
  m_Modification:
    m_TransformParent: {fileID: 0}
    m_Modifications:
    - target: {fileID: 1934067547074324504, guid: 9268102ad43ce0f47a9b709bd1671b82,
        type: 3}
      propertyPath: m_Name
      value: Character6
      objectReference: {fileID: 0}
    - target: {fileID: 1106022151952728619, guid: 9268102ad43ce0f47a9b709bd1671b82,
        type: 3}
      propertyPath: m_LocalPosition.x
      value: 0
      objectReference: {fileID: 0}
    - target: {fileID: 1106022151952728619, guid: 9268102ad43ce0f47a9b709bd1671b82,
        type: 3}
      propertyPath: m_LocalPosition.y
      value: 0
      objectReference: {fileID: 0}
    - target: {fileID: 1106022151952728619, guid: 9268102ad43ce0f47a9b709bd1671b82,
        type: 3}
      propertyPath: m_LocalPosition.z
      value: 0
      objectReference: {fileID: 0}
    - target: {fileID: 1106022151952728619, guid: 9268102ad43ce0f47a9b709bd1671b82,
        type: 3}
      propertyPath: m_LocalRotation.x
      value: 0
      objectReference: {fileID: 0}
    - target: {fileID: 1106022151952728619, guid: 9268102ad43ce0f47a9b709bd1671b82,
        type: 3}
      propertyPath: m_LocalRotation.y
      value: 0
      objectReference: {fileID: 0}
    - target: {fileID: 1106022151952728619, guid: 9268102ad43ce0f47a9b709bd1671b82,
        type: 3}
      propertyPath: m_LocalRotation.z
      value: 0
      objectReference: {fileID: 0}
    - target: {fileID: 1106022151952728619, guid: 9268102ad43ce0f47a9b709bd1671b82,
        type: 3}
      propertyPath: m_LocalRotation.w
      value: 1
      objectReference: {fileID: 0}
    - target: {fileID: 1106022151952728619, guid: 9268102ad43ce0f47a9b709bd1671b82,
        type: 3}
      propertyPath: m_RootOrder
      value: 0
      objectReference: {fileID: 0}
    - target: {fileID: 1106022151952728619, guid: 9268102ad43ce0f47a9b709bd1671b82,
        type: 3}
      propertyPath: m_LocalEulerAnglesHint.x
      value: 0
      objectReference: {fileID: 0}
    - target: {fileID: 1106022151952728619, guid: 9268102ad43ce0f47a9b709bd1671b82,
        type: 3}
      propertyPath: m_LocalEulerAnglesHint.y
      value: 0
      objectReference: {fileID: 0}
    - target: {fileID: 1106022151952728619, guid: 9268102ad43ce0f47a9b709bd1671b82,
        type: 3}
      propertyPath: m_LocalEulerAnglesHint.z
      value: 0
      objectReference: {fileID: 0}
    - target: {fileID: 8833217698018065297, guid: 9268102ad43ce0f47a9b709bd1671b82,
        type: 3}
      propertyPath: m_Materials.Array.data[0]
      value: 
      objectReference: {fileID: 2100000, guid: 7f1869e82eac3b7408e6b74840cbc328, type: 2}
    m_RemovedComponents: []
  m_SourcePrefab: {fileID: 100100000, guid: 9268102ad43ce0f47a9b709bd1671b82, type: 3}
